LatchD4BitRegister/simulation/qsim/LatchD4BitRegister.msim.vcd
$comment
	File created using the following command:
		vcd file LatchD4BitRegister.msim.vcd -direction
$end
$date
	Tue Nov 15 22:43:03 2022
$end
$version
	ModelSim Version 10.1d
$end
$timescale
	1ps
$end
$scope module LatchD4BitRegister_vlg_vec_tst $end
$var reg 1 ! clk $end
$var reg 1 " I0 $end
$var reg 1 # I1 $end
$var reg 1 $ I2 $end
$var reg 1 % I3 $end
$var wire 1 & Q0 $end
$var wire 1 ' Q1 $end
$var wire 1 ( Q2 $end
$var wire 1 ) Q3 $end
$var wire 1 * sampler $end
$scope module i1 $end
$var wire 1 + gnd $end
$var wire 1 , vcc $end
$var wire 1 - unknown $end
$var tri1 1 . devclrn $end
$var tri1 1 / devpor $end
$var tri1 1 0 devoe $end
$var wire 1 1 Q3~output_o $end
$var wire 1 2 Q2~output_o $end
$var wire 1 3 Q1~output_o $end
$var wire 1 4 Q0~output_o $end
$var wire 1 5 clk~input_o $end
$var wire 1 6 I3~input_o $end
$var wire 1 7 L3|comb~0_combout $end
$var wire 1 8 L3|process_0~0_combout $end
$var wire 1 9 L3|Q~combout $end
$var wire 1 : I2~input_o $end
$var wire 1 ; L2|comb~0_combout $end
$var wire 1 < L2|process_0~0_combout $end
$var wire 1 = L2|Q~combout $end
$var wire 1 > I1~input_o $end
$var wire 1 ? L1|process_0~0_combout $end
$var wire 1 @ L1|comb~0_combout $end
$var wire 1 A L1|Q~combout $end
$var wire 1 B I0~input_o $end
$var wire 1 C L0|process_0~0_combout $end
$var wire 1 D L0|comb~0_combout $end
$var wire 1 E L0|Q~combout $end
$upscope $end
$upscope $end
$enddefinitions $end
#0
$dumpvars
0!
0"
0#
0$
0%
x&
x'
x(
x)
x*
0+
1,
x-
1.
1/
10
x1
x2
x3
x4
05
06
07
08
x9
0:
0;
0<
x=
0>
0?
0@
xA
0B
0C
0D
xE
$end
#80000
1"
1#
1B
1>
0*
#100000
1!
15
1*
1C
1?
1;
17
1E
1A
0=
09
14
13
02
01
1&
1'
0(
0)
#120000
0"
0#
0B
0>
0*
1D
0C
1@
0?
0E
0A
04
03
0&
0'
#200000
0!
05
1*
0D
0@
0;
07
#280000
1%
16
0*
#300000
1!
15
1*
1D
1@
1;
18
19
11
1)
#320000
0%
06
0*
08
17
09
01
0)
#400000
0!
05
1*
0D
0@
0;
07
#480000
1$
1"
1%
1:
1B
16
0*
#500000
1!
15
1*
1C
1@
1<
18
1E
1=
19
14
12
11
1&
1(
1)
#520000
0$
0"
0%
0:
0B
06
0*
0<
1;
1D
0C
08
17
0=
0E
09
02
04
01
0(
0&
0)
#600000
0!
05
1*
0D
0@
0;
07
#700000
1!
15
0*
1D
1@
1;
17
#780000
1#
1$
1"
1%
1>
1:
1B
16
1*
0@
1?
1<
0;
0D
1C
18
07
1A
1=
1E
19
13
12
14
11
1'
1(
1&
1)
#800000
0!
05
0*
0C
0?
0<
08
#820000
0#
0$
0"
0%
0>
0:
0B
06
1*
#900000
1!
15
0*
1D
1@
1;
17
0E
0A
0=
09
04
03
02
01
0&
0'
0(
0)
